{ "title": "Skeleton Campaign"
, "authors": "Ms. Brocolli from Veggie University"
, "description": "A short one-liner describing the campaign"
, "diagramPath": "./network-diagram.png"
, "challenges": 
  [ { "prompt": "Allow inward-bound HTTP and HTTPS traffic."
    , "solution": "open inward TCP ports 80 and 443"
    , "testPackets":
      [ { "packet":
          { "type": "TCP"
          , "srcIP": "TODO"
          , "dstIP": "TODO"
          , "dstPort": 80
          } 
        , "expectedDecision": "allow"
        , "failText": "HTTPS traffic cannot get through yet."
        }
      ]
    , "questions":
      [ { "question": "Port 80 is for which protocol?"
        , "choices": ["HTTP", "HTTPS"]
        , "answerIdx": 0
        , "points": 10
        }
      ]
    , "debrief": "Good job! Webservers typically serve content over TCP port 80."
    , "points": 100
    }
  ]
, "debrief": "Nicely done. You learned about X and Y and saved the world!"
}
